[
  {
    "type": "link",
    "side": "left",
    "name": "투자하기",
    "data": "/invest"
  },
  {
    "type": "dropdown",
    "side": "right",
    "name": "회사소개",
    "data": [
      {
        "name": "투자 수익",
        "data": "/stats"
      }
    ]
  },
  {
    "type": "dropdown",
    "side": "right",
    "name": "이용방법",
    "data": [
      {
        "name": "고객센터",
        "data": "/support"
      }
    ]
  },
  {
    "type": "login-btn",
    "side": "right"
  },
  {
    "type": "signup-btn",
    "side": "right"
  }
]
