{
  "mobile": {
    "max": 600
  },
  "tablet": {
    "min": 601,
    "max": 1100
  },
  "tablet_s": {
    "min": 601,
    "max": 800
  },
  "tablet_m": {
    "min": 801,
    "max": 1000
  },
  "tablet_l": {
    "min": 1001,
    "max": 1100
  },
  "desktop": {
    "min": 1201,
    "max": 1450
  },
  "wide": {
    "min": 1451
  }
}
